{
  "app-id": "org.kde.kdenlive",
  "default-branch": "master",
  "runtime": "org.kde.Platform",
  "runtime-version": "5.15-21.08",
  "sdk": "org.kde.Sdk",
  "sdk-extensions" : [ "org.freedesktop.Sdk.Extension.llvm12" ],
  "command": "kdenlive",
  "rename-icon": "kdenlive",
  "desktop-file-name-suffix": " (Nightly)",
  "finish-args": [
    "--require-version=0.11.4",
    "--share=ipc",
    "--socket=x11",
    "--socket=wayland",
    "--device=all",
    "--socket=pulseaudio",
    "--share=network",
    "--filesystem=host",
    "--filesystem=xdg-config/kdeglobals:ro",
    "--env=TMPDIR=/var/tmp",
    "--env=QT_ENABLE_HIGHDPI_SCALING=1",
    "--env=FREI0R_PATH=/app/lib/frei0r-1",
    "--env=LADSPA_PATH=/app/extensions/Plugins/ladspa:/app/lib/ladspa",
    "--env=PACKAGE_TYPE=flatpak"
  ],
  "add-extensions": {
    "org.freedesktop.LinuxAudio.Plugins": {
      "directory": "extensions/Plugins",
      "version": "21.08",
      "add-ld-path": "lib",
      "merge-dirs": "ladspa",
      "subdirectories": true,
      "no-autodownload": true
    },
    "org.freedesktop.LinuxAudio.Plugins.swh": {
      "directory": "extensions/Plugins/swh",
      "version": "21.08",
      "add-ld-path": "lib",
      "merge-dirs": "ladspa",
      "autodelete": false,
      "subdirectories": true
    },
    "org.freedesktop.LinuxAudio.Plugins.TAP": {
      "directory": "extensions/Plugins/TAP",
      "version": "21.08",
      "add-ld-path": "lib",
      "merge-dirs": "ladspa",
      "autodelete": false,
      "subdirectories": true
    }
  },
  "cleanup": [
    "/include",
    "/lib/pkgconfig",
    "/lib/cmake",
    "/mkspecs",
    "/share/aclocal",
    "/share/gtk-doc",
    "/share/man",
    "/share/pkgconfig",
    "*.a",
    "*.la",
    "*.cmake"
  ],
  "modules": [
    "python-modules.json",
    {
      "name": "rttr",
      "buildsystem": "cmake-ninja",
      "builddir": true,
      "config-opts": [
        "-DCMAKE_INSTALL_LIBDIR=lib",
        "-DBUILD_EXAMPLES=OFF",
        "-DBUILD_DOCUMENTATION=OFF",
        "-DBUILD_UNIT_TESTS=OFF",
        "-DBUILD_PACKAGE=OFF",
        "-DBUILD_STATIC=OFF"
      ],
      "sources": [
        {
          "type": "archive",
          "url": "https://github.com/rttrorg/rttr/releases/download/v0.9.6/rttr-0.9.6-src.tar.gz",
          "sha256": "f62caee43016489320f8a69145c9208cddd72e451ea95618bc26a49a4cd6c990",
          "x-checker-data": {
              "type": "json",
              "url": "https://api.github.com/repos/rttrorg/rttr/releases/latest",
              "version-query": ".tag_name | sub(\"^v\"; \"\")",
              "url-query": ".assets[] | select(.name==\"rttr-\" + $version + \"-src.tar.gz\") | .browser_download_url"
          }
        }
      ]
    },
    {
      "name": "eigen",
      "buildsystem": "cmake-ninja",
      "builddir": true,
      "cleanup": [
        "*"
      ],
      "sources": [
        {
          "type": "archive",
          "url": "https://gitlab.com/libeigen/eigen/-/archive/3.4.0/eigen-3.4.0.tar.bz2",
          "sha256": "b4c198460eba6f28d34894e3a5710998818515104d6e74e5cc331ce31e46e626",
          "x-checker-data": {
              "type": "anitya",
              "project-id": 666,
              "stable-only": true,
              "url-template": "https://gitlab.com/libeigen/eigen/-/archive/$version/eigen-$version.tar.bz2"
          }
        }
      ]
    },
    {
      "name": "fftw-float",
      "config-opts": [
        "--disable-doc",
        "--enable-shared",
        "--disable-static",
        "--enable-threads",
        "--enable-float",
        "--enable-openmp"
      ],
      "build-options": {
        "arch": {
          "x86_64": {
            "config-opts": [
              "--enable-avx",
              "--enable-sse"
            ]
          },
          "aarch64": {
            "config-opts": [
              "--enable-neon"
            ]
          }
        }
      },
      "cleanup": [
        "/bin"
      ],
      "sources": [
        {
          "type": "archive",
          "url": "https://www.fftw.org/fftw-3.3.10.tar.gz",
          "sha256": "56c932549852cddcfafdab3820b0200c7742675be92179e59e6215b340e26467",
          "x-checker-data": {
              "type": "anitya",
              "project-id": 803,
              "stable-only": true,
              "url-template": "https://www.fftw.org/fftw-$version.tar.gz"
          }
        }
      ]
    },
    {
      "name": "zimg",
      "buildsystem": "autotools",
      "sources": [
        {
          "type": "archive",
          "url": "https://github.com/sekrit-twc/zimg/archive/release-3.0.3.tar.gz",
          "sha256": "5e002992bfe8b9d2867fdc9266dc84faca46f0bfd931acc2ae0124972b6170a7",
          "x-checker-data": {
              "type": "anitya",
              "project-id": 13685,
              "stable-only": true,
              "url-template": "https://github.com/sekrit-twc/zimg/archive/release-$version.tar.gz"
          }
        }
      ]
    },
    {
      "name": "sox",
      "config-opts": [
        "--disable-static"
      ],
      "cleanup": [
        "/bin"
      ],
      "sources": [
        {
          "type": "archive",
          "url": "https://downloads.sourceforge.net/project/sox/sox/14.4.2/sox-14.4.2.tar.bz2",
          "sha256": "81a6956d4330e75b5827316e44ae381e6f1e8928003c6aa45896da9041ea149c",
          "mirror-urls": [
            "https://http.debian.net/debian/pool/main/s/sox/sox_14.4.2.orig.tar.bz2"
          ],
          "x-checker-data": {
              "type": "anitya",
              "project-id": 4858,
              "stable-only": true,
              "url-template": "https://downloads.sourceforge.net/project/sox/sox/$version/sox-$version.tar.bz2"
          }
        }
      ]
    },
    {
      "name": "vidstab",
      "buildsystem": "cmake-ninja",
      "builddir": true,
      "config-opts": [
        "-DCMAKE_BUILD_TYPE=Release"
      ],
      "sources": [
        {
          "type": "archive",
          "url": "https://github.com/georgmartius/vid.stab/archive/v1.1.0.tar.gz",
          "sha256": "14d2a053e56edad4f397be0cb3ef8eb1ec3150404ce99a426c4eb641861dc0bb",
          "x-checker-data": {
              "type": "anitya",
              "project-id": 15959,
              "stable-only": true,
              "url-template": "https://github.com/georgmartius/vid.stab/archive/v$version.tar.gz"
          }
        }
      ]
    },
    {
      "name": "jack2",
      "buildsystem": "simple",
      "build-commands": [
        "./waf configure --prefix=/app --htmldir=/app/share/doc/jack/ --classic",
        "./waf build -j $FLATPAK_BUILDER_N_JOBS",
        "./waf install"
      ],
      "cleanup": [
        "/bin",
        "/share",
        "/lib/jack",
        "/lib/libjackserver.so*"
      ],
      "sources": [
        {
          "type": "archive",
          "url": "https://github.com/jackaudio/jack2/archive/v1.9.19.tar.gz",
          "sha256": "9030f4dc11773351b6ac96affd9c89803a5587ebc1b091e5ff866f433327e4b0",
          "x-checker-data": {
              "type": "anitya",
              "project-id": 21358,
              "stable-only": true,
              "url-template": "https://github.com/jackaudio/jack2/archive/v$version.tar.gz"
          }
        }
      ]
    },
    {
      "name": "rtaudio",
      "config-opts": [
        "--disable-static",
        "--enable-shared"
      ],
      "sources": [
        {
          "type": "archive",
          "url": "https://www.music.mcgill.ca/~gary/rtaudio/release/rtaudio-5.2.0.tar.gz",
          "sha256": "d6089c214e5dbff136ab21f3f5efc284e93475ebd198c54d4b9b6c44419ef4e6",
          "x-checker-data": {
              "type": "anitya",
              "project-id": 10227,
              "stable-only": true,
              "url-template": "https://www.music.mcgill.ca/~gary/rtaudio/release/rtaudio-$version.tar.gz"
          }
        }
      ]
    },
    {
      "name": "gavl",
      "rm-configure": true,
      "config-opts": [
        "--without-doxygen",
        "--disable-static",
        "--enable-shared"
      ],
      "sources": [
        {
          "type": "archive",
          "url": "https://downloads.sourceforge.net/project/gmerlin/gavl/1.4.0/gavl-1.4.0.tar.gz",
          "sha256": "51aaac41391a915bd9bad07710957424b046410a276e7deaff24a870929d33ce",
          "mirror-urls": [
            "https://http.debian.net/debian/pool/main/g/gavl/gavl_1.4.0.orig.tar.gz"
          ],
          "x-checker-data": {
              "type": "anitya",
              "project-id": 10275,
              "stable-only": true,
              "url-template": "https://downloads.sourceforge.net/project/gmerlin/gavl/$version/gavl-$version.tar.gz"
          }
        },
        {
          "type": "shell",
          "commands": [
            "cp -p /usr/share/automake-*/config.{sub,guess} ."
          ]
        },
        {
          "type": "script",
          "dest-filename": "autogen.sh",
          "commands": [
            "autoreconf -vfi"
          ]
        }
      ]
    },
    {
      "name": "exiv2",
      "buildsystem": "cmake-ninja",
      "builddir": true,
      "config-opts": [
        "-DCMAKE_BUILD_TYPE=RelWithDebInfo"
      ],
      "cleanup": [
        "/bin"
      ],
      "sources": [
        {
          "type": "archive",
          "url": "https://github.com/Exiv2/exiv2/releases/download/v0.27.5/exiv2-0.27.5-Source.tar.gz",
          "sha256": "35a58618ab236a901ca4928b0ad8b31007ebdc0386d904409d825024e45ea6e2",
          "x-checker-data": {
              "type": "anitya",
              "project-id": 769,
              "stable-only": true,
              "url-template": "https://github.com/Exiv2/exiv2/releases/download/v$version/exiv2-$version-Source.tar.gz"
          }
        }
      ]
    },
    {
      "name": "libass",
      "config-opts": [
        "--enable-harfbuzz",
        "--enable-fontconfig"
      ],
      "sources": [
        {
          "type": "archive",
          "url": "https://github.com/libass/libass/releases/download/0.15.2/libass-0.15.2.tar.xz",
          "sha256": "1be2df9c4485a57d78bb18c0a8ed157bc87a5a8dd48c661961c625cb112832fd",
          "x-checker-data": {
              "type": "anitya",
              "project-id": 1560,
              "stable-only": true,
              "url-template": "https://github.com/libass/libass/releases/download/$version/libass-$version.tar.xz"
          }
        }
      ]
    },
    {
      "name": "frei0r-plugins",
      "buildsystem": "cmake-ninja",
      "builddir": true,
      "config-opts": [
        "-DCMAKE_BUILD_TYPE=RelWithDebInfo"
      ],
      "sources": [
        {
          "type": "archive",
          "url": "https://github.com/dyne/frei0r/archive/v2.0.0.tar.gz",
          "sha256": "cc3ce35f7c208a7a82ab5c4cfad2dde006b4c2db4724015570c155c5b36ac82b",
          "x-checker-data": {
              "type": "anitya",
              "project-id": 10670,
              "stable-only": true,
              "url-template": "https://github.com/dyne/frei0r/archive/v$version.tar.gz"
          }
        }
      ]
    },
    {
      "name": "bigsh0t",
      "buildsystem": "cmake-ninja",
      "builddir": true,
      "no-make-install": true,
      "config-opts": [
        "-DCMAKE_BUILD_TYPE=Release",
        "-DBUILD_TESTING=OFF"
      ],
      "post-install": [
        "cp -v bigsh0t-*-linux/lib/frei0r-1/*.so /app/lib/frei0r-1"
      ],
      "sources": [
        {
          "type": "archive",
          "url": "https://bitbucket.org/leo_sutic/bigsh0t/get/2.5.1.tar.bz2",
          "sha256": "8c6ade9e1bca5d820948db443009da6bbec876cac8e0e2a0c5de269c577a5c32",
          "x-checker-data": {
              "type": "anitya",
              "project-id": 288153,
              "stable-only": true,
              "url-template": "https://bitbucket.org/leo_sutic/bigsh0t/get/$version.tar.bz2"
          }
        }
      ]
    },
    {
      "name": "ladspa-sdk",
      "no-autogen": true,
      "subdir": "src",
      "make-install-args": [
        "INSTALL_PLUGINS_DIR=/app/lib/ladspa",
        "INSTALL_INCLUDE_DIR=/app/include",
        "INSTALL_BINARY_DIR=/app/bin"
      ],
      "cleanup": [
        "/bin"
      ],
      "sources": [
        {
          "type": "archive",
          "url": "https://www.ladspa.org/download/ladspa_sdk_1.17.tgz",
          "sha256": "27d24f279e4b81bd17ecbdcc38e4c42991bb388826c0b200067ce0eb59d3da5b",
          "x-checker-data": {
              "type": "anitya",
              "project-id": 227231,
              "stable-only": true,
              "url-template": "https://www.ladspa.org/download/ladspa_sdk_$version.tgz"
          }
        }
      ]
    },
    {
      "name": "ladspa-noise-suppressor",
      "buildsystem": "cmake-ninja",
      "builddir": true,
      "config-opts": [
        "-DBUILD_LV2_PLUGIN=OFF",
        "-DBUILD_VST_PLUGIN=OFF"
      ],
      "sources": [
        {
          "type": "archive",
          "url": "https://github.com/werman/noise-suppression-for-voice/archive/refs/tags/v0.91.tar.gz",
          "sha256": "4f3a112534d4abb5ee2b6c328cde89193dbdb2146cffc98505972c3b5397a35e",
          "x-checker-data": {
              "type": "rotating-url",
              "url": "https://github.com/werman/noise-suppression-for-voice/releases/latest",
              "pattern": "https://github.com/werman/noise-suppression-for-voice/releases/tag/v([0-9.]+)",
              "url-template": "https://github.com/werman/noise-suppression-for-voice/archive/refs/tags/v$version.tar.gz"
          }
        }
      ]
    },
    {
      "name": "v4l-utils",
      "config-opts": [
        "--disable-static",
        "--disable-doxygen-doc",
        "--disable-libdvbv5",
        "--disable-v4l-utils",
        "--disable-qv4l2",
        "--with-udevdir=/app/lib/udev"
      ],
      "sources": [
        {
          "type": "archive",
          "url": "https://linuxtv.org/downloads/v4l-utils/v4l-utils-1.22.0.tar.bz2",
          "sha256": "1069e5d7909bcc563baeaadc3a5c496f0e658524c413cf7818816e37bfcea344",
          "x-checker-data": {
              "type": "anitya",
              "project-id": 9998,
              "stable-only": true,
              "url-template": "https://linuxtv.org/downloads/v4l-utils/v4l-utils-$version.tar.bz2"
          }
        }
      ]
    },
    {
      "name": "x264",
      "config-opts": [
        "--disable-cli",
        "--enable-shared"
      ],
      "sources": [
        {
          "type": "git",
          "url": "https://code.videolan.org/videolan/x264.git",
          "commit": "5db6aa6cab1b146e07b60cc1736a01f21da01154"
        }
      ]
    },
    {
      "name": "x265",
      "buildsystem": "cmake-ninja",
      "builddir": true,
      "subdir": "source",
      "config-opts": [
        "-DCMAKE_BUILD_TYPE=Release",
        "-DENABLE_CLI=OFF"
      ],
      "sources": [
        {
          "type": "archive",
          "url": "https://deb.debian.org/debian/pool/main/x/x265/x265_3.5.orig.tar.gz",
          "sha256": "e70a3335cacacbba0b3a20ec6fecd6783932288ebc8163ad74bcc9606477cae8",
          "x-checker-data": {
              "type": "anitya",
              "project-id": 7275,
              "stable-only": true,
              "url-template": "https://deb.debian.org/debian/pool/main/x/x265/x265_$version.orig.tar.gz"
          }
        }
      ]
    },
    {
      "name": "mfx-dispatch",
      "skip-arches": [
        "aarch64"
      ],
      "buildsystem": "simple",
      "build-commands": [
        "autoreconf -fiv",
        "./configure --prefix=/app",
        "make",
        "make install"
      ],
      "sources": [
        {
          "type": "archive",
          "url": "https://github.com/lu-zero/mfx_dispatch/archive/refs/tags/1.35.1.tar.gz",
          "sha256": "673636da98a4fd5c3e3dc5267da5429e986f53089ed6c33cdca5751f56d9416b",
          "x-checker-data": {
              "type": "anitya",
              "project-id": 11573,
              "stable-only": true,
              "url-template": "https://github.com/lu-zero/mfx_dispatch/archive/refs/tags/$version.tar.gz"
          }
        }
      ]
    },
    {
      "name": "opencl-headers",
      "buildsystem": "simple",
      "build-commands": [
        "cp -av CL /app/include"
        ],
      "sources": [
        {
          "type": "archive",
          "url": "https://github.com/KhronosGroup/OpenCL-Headers/archive/refs/tags/v2021.06.30.tar.gz",
          "sha256": "6640d590c30d90f89351f5e3043ae6363feeb19ac5e64bc35f8cfa1a6cd5498e",
          "x-checker-data": {
              "type": "anitya",
              "project-id": 223257,
              "stable-only": true,
              "url-template": "https://github.com/KhronosGroup/OpenCL-Headers/archive/refs/tags/v$version.tar.gz"
          }
        }
      ]
    },
    {
      "name": "amf-headers",
      "buildsystem": "simple",
      "build-commands": [
        "cp -av amf/public/include/. /app/include/AMF"
        ],
      "sources": [
        {
          "type": "archive",
          "url": "https://github.com/GPUOpen-LibrariesAndSDKs/AMF/archive/refs/tags/v1.4.23.tar.gz",
          "sha256": "7c8a5c91bca54e257258e4efcc61925921f2efe432efd34cf77dd9dc1803c38a",
          "x-checker-data": {
              "type": "anitya",
              "project-id": 138182,
              "stable-only": true,
              "url-template": "https://github.com/GPUOpen-LibrariesAndSDKs/AMF/archive/refs/tags/v$version.tar.gz"
          }
        }
      ]
    },
    {
      "name": "nv-codec-headers",
      "cleanup": [
        "*"
      ],
      "no-autogen": true,
      "make-install-args": [
        "PREFIX=/app"
      ],
      "sources": [
        {
          "type": "archive",
          "url": "https://github.com/FFmpeg/nv-codec-headers/archive/refs/tags/n11.1.5.0.tar.gz",
          "sha256": "b833bd90852c1f45d01f65c70545f6a31e5b9ca64814a269626c7ad2286d55ee",
          "x-checker-data": {
              "type": "anitya",
              "project-id": 223796,
              "stable-only": true,
              "url-template": "https://github.com/FFmpeg/nv-codec-headers/archive/refs/tags/n$version.tar.gz"
          }
        }
      ]
    },
    {
      "name": "aom",
      "buildsystem": "cmake-ninja",
      "builddir": true,
      "config-opts": [
        "-DCMAKE_BUILD_TYPE=Release",
        "-DCMAKE_INSTALL_PREFIX=/app",
        "-DBUILD_SHARED_LIBS=1",
        "-DENABLE_DOCS=0",
        "-DENABLE_EXAMPLES=0",
        "-DENABLE_TESTDATA=0",
        "-DENABLE_TESTS=0",
        "-DENABLE_TOOLS=0"
      ],
      "sources": [
        {
          "type": "git",
          "url": "https://aomedia.googlesource.com/aom.git",
          "tag": "v3.2.0",
          "x-checker-data": {
              "type": "git",
              "tag-pattern": "^v([\\d.]+)$"
          }
        }
      ]
    },
    {
      "name": "libva",
      "skip-arches": [
        "aarch64"
      ],
      "buildsystem": "meson",
      "sources": [
        {
          "type": "archive",
          "url": "https://github.com/intel/libva/archive/refs/tags/2.13.0.tar.gz",
          "sha256": "6b7ec7d4fa204dad3f266450981f1f0892400c03afd3e00ac11f8ccade5aaaa1",
          "x-checker-data": {
              "type": "anitya",
              "project-id": 1752,
              "stable-only": true,
              "url-template": "https://github.com/intel/libva/archive/refs/tags/$version.tar.gz"
          }
        }
      ]
    },
    {
      "name": "libva-utils",
      "skip-arches": [
        "aarch64"
      ],
      "buildsystem": "meson",
      "sources": [
        {
          "type": "archive",
          "url": "https://github.com/intel/libva-utils/archive/refs/tags/2.13.0.tar.gz",
          "sha256": "128333faa9792a3b87586a80bfb70859dcdd81847ec9a722f785a601a48e1731",
          "x-checker-data": {
              "type": "anitya",
              "project-id": 16334,
              "stable-only": true,
              "url-template": "https://github.com/intel/libva-utils/archive/refs/tags/$version.tar.gz"
          }
        }
      ] 
    },
    {
      "name": "mediasdk",
      "buildsystem": "cmake-ninja",
      "builddir": true,
      "config-opts": [
        "-DCMAKE_BUILD_TYPE=Release",
        "-DBUILD_SAMPLES=OFF",
        "-DBUILD_TESTS=OFF",
        "-DBUILD_TOOLS=OFF",
        "-DBUILD_TESTS=OFF",
        "-DMFX_ENABLE_SW_FALLBACK=OFF"
      ],
      "sources": [
        {
          "type": "archive",
          "url": "https://github.com/Intel-Media-SDK/MediaSDK/archive/intel-mediasdk-21.3.5.tar.gz",
          "sha256": "3f13869298d3946d7d91e58846e274ef62cd5af2473f59f36b57b2c27ebfd87c",
          "x-checker-data": {
            "type": "anitya",
            "project-id": 21814,
            "stable-only": true,
            "url-template": "https://github.com/Intel-Media-SDK/MediaSDK/archive/intel-mediasdk-$version.tar.gz"
          }
        }
      ]
    },
    {
      "name": "ffmpeg",
      "config-opts": [
        "--enable-rpath",
        "--enable-gpl",
        "--disable-static",
        "--enable-shared",
        "--disable-doc",
        "--disable-alsa",
        "--enable-libfontconfig",
        "--enable-libfreetype",
        "--enable-libopus",
        "--enable-libpulse",
        "--enable-librsvg",
        "--enable-libvpx",
        "--enable-libdav1d",
        "--enable-libxml2",
        "--enable-libx264",
        "--enable-libx265",
        "--enable-libdav1d",
        "--enable-libv4l2",
        "--enable-libmp3lame",
        "--enable-libzimg",
        "--enable-vaapi",
        "--enable-libmfx",
        "--enable-amf",
        "--enable-opencl",
        "--enable-libass",
        "--enable-gnutls",
        "--enable-libvidstab",
        "--enable-libaom",
        "--enable-libopenjpeg",
        "--enable-ffnvcodec",
        "--enable-cuda-llvm",
        "--enable-nvenc",
        "--enable-vdpau",
        "--enable-nvdec",
        "--enable-cuvid"
      ],
      "build-options": {
        "prepend-path": "/usr/lib/sdk/llvm12/bin",
        "prepend-ld-library-path": "/usr/lib/sdk/llvm12/lib"
      },
      "cleanup": [
        "/share/ffmpeg/examples"
      ],
      "sources": [
        {
          "type": "archive",
          "url": "https://www.ffmpeg.org/releases/ffmpeg-5.0.tar.xz",
          "sha256": "51e919f7d205062c0fd4fae6243a84850391115104ccf1efc451733bc0ac7298",
          "x-checker-data": {
            "type": "anitya",
            "project-id": 5405,
            "stable-only": true,
            "url-template": "https://www.ffmpeg.org/releases/ffmpeg-$version.tar.xz"
          }
        }
      ]
    },
    {
      "name": "libzen",
      "subdir": "Project/GNU/Library",
      "config-opts": [ "--enable-shared", "--disable-static" ],
      "cleanup": [ "/bin", "/include", "/lib/pkgconfig", "/lib/*.la" ],
      "sources": [
        {
          "type": "archive",
          "url": "https://mediaarea.net/download/source/libzen/0.4.39/libzen_0.4.39.tar.xz",
          "sha256": "cded5d7774294e7d5b42768ceb285243709b6e99eec6e980a3cf7f0890dbb622",
          "x-checker-data": {
            "type": "anitya",
            "project-id": 1810,
            "stable-only": true,
            "url-template": "https://mediaarea.net/download/source/libzen/$version/libzen_$version.tar.xz"
          }
        }
      ]
    },
    {
      "name": "libmediainfo",
      "subdir": "Project/GNU/Library",
      "config-opts": [ "--enable-shared", "--disable-static", "--with-libcurl" ],
      "cleanup": [ "/bin", "/include", "/lib/pkgconfig", "/lib/*.la" ],
      "sources": [
        {
          "type": "archive",
          "url": "https://mediaarea.net/download/source/libmediainfo/21.09/libmediainfo_21.09.tar.xz",
          "sha256": "69be9444f6a03a1bdf56713ee31d56e987c502a7ec18eb54ee70fcc171b7f126",
          "x-checker-data": {
            "type": "anitya",
            "project-id": 16249,
            "stable-only": true,
            "url-template": "https://mediaarea.net/download/source/libmediainfo/$version/libmediainfo_$version.tar.xz"
          }
        }
      ]
    },
    {
      "name": "mediainfo-cli",
      "subdir": "Project/GNU/CLI",
      "cleanup": [ "share/pixmaps", "/share/apps", "/share/kde4", "/share/kservices5" ],
      "sources": [
        {
          "type": "archive",
          "url": "https://mediaarea.net/download/source/mediainfo/21.09/mediainfo_21.09.tar.xz",
          "sha256": "7b8fd9a502ec64afe1315072881b6385ba57ca69f2f82c625b1672e151c50c57",
          "x-checker-data": {
            "type": "anitya",
            "project-id": 8240,
            "stable-only": true,
            "url-template": "https://mediaarea.net/download/source/mediainfo/$version/mediainfo_$version.tar.xz"
          }
        }
      ]
    },
    {
      "name": "opencv",
      "buildsystem": "cmake-ninja",
      "builddir": true,
      "config-opts": [
        "-DCMAKE_BUILD_TYPE=Release",
        "-DOPENCV_GENERATE_PKGCONFIG=ON",
        "-DBUILD_LIST=tracking"
      ],
      "cleanup": [
        "/bin"
      ],
      "sources": [
        {
          "type": "archive",
          "url": "https://github.com/opencv/opencv/archive/4.5.4.tar.gz",
          "sha256": "c20bb83dd790fc69df9f105477e24267706715a9d3c705ca1e7f613c7b3bad3d",
          "x-checker-data": {
            "type": "anitya",
            "project-id": 6615,
            "stable-only": true,
            "url-template": "https://github.com/opencv/opencv/archive/$version.tar.gz"
          }
        },
        {
          "type": "archive",
          "url": "https://github.com/opencv/opencv_contrib/archive/4.5.4.tar.gz",
          "sha256": "ad74b440b4539619dc9b587995a16b691246023d45e34097c73e259f72de9f81",
          "x-checker-data": {
            "type": "anitya",
            "project-id": 6615,
            "stable-only": true,
            "url-template": "https://github.com/opencv/opencv_contrib/archive/$version.tar.gz"
          }
        }
      ]
    },
    {
      "name": "rubberband",
      "buildsystem": "meson",
      "sources": [
        {
          "type": "archive",
          "url": "https://breakfastquay.com/files/releases/rubberband-2.0.0.tar.bz2",
          "sha256": "eccbf0545496ce3386a2433ceec31e6576a76ed6884310e4b465003bfe260286",
          "x-checker-data": {
            "type": "anitya",
            "project-id": 4222,
            "stable-only": true,
            "url-template": "https://breakfastquay.com/files/releases/rubberband-$version.tar.bz2"
          }
        }
      ]
    },
    {
      "name": "movit",
      "make-args": [
        "libmovit.la"
      ],
      "sources": [
        {
          "type": "git",
          "url": "https://git.sesse.net/movit",
          "commit": "0b1705581552217b0e387bd687d65e4e3410ab91"
        }
      ]
    },
    {
      "name": "mlt",
      "buildsystem": "cmake-ninja",
      "builddir": true,
      "config-opts": [
        "-DMOD_OPENCV=ON",
        "-DMOD_MOVIT=ON",
        "-DMOD_GLAXNIMATE=ON",
        "-DCMAKE_BUILD_TYPE=RelWithDebInfo"
      ],
      "sources": [
        {
          "type": "git",
          "url": "https://github.com/mltframework/mlt.git",
          "branch": "master"
        }
      ]
    },
    {
      "name": "kdenlive",
      "buildsystem": "cmake-ninja",
      "builddir": true,
      "config-opts": [
        "-DCMAKE_BUILD_TYPE=RelWithDebInfo",
        "-DRELEASE_BUILD=OFF"
      ],
      "post-install": [
        "install -d /app/extensions/Plugins"
      ],
      "sources": [
        {
          "type": "git",
          "url": "https://invent.kde.org/multimedia/kdenlive.git",
          "branch": "master"
        }
      ]
    }
  ]
}
